...............
----------------------------------------------------------------------
Ran 15 tests in 0.592s

OK
Name             Stmts   Miss Branch BrPart  Cover   Missing
------------------------------------------------------------
Collatz.py          47      1     16      1    97%   79, 78->79
TestCollatz.py      66      0      0      0   100%
------------------------------------------------------------
TOTAL              113      1     16      1    98%