...................
----------------------------------------------------------------------
Ran 19 tests in 3.003s

OK
Name             Stmts   Miss Branch BrPart  Cover   Missing
------------------------------------------------------------
Collatz.py          67      6     34      4    90%   40-42, 1410, 1415, 1952, 39->40, 1397->1400, 1409->1410, 1414->1415
TestCollatz.py      78      0      0      0   100%
------------------------------------------------------------
TOTAL              145      6     34      4    94%