...................
----------------------------------------------------------------------
Ran 19 tests in 17.287s

OK
Name             Stmts   Miss Branch BrPart  Cover   Missing
------------------------------------------------------------
Collatz.py          36      1     20      2    95%   69, 40->69, 52->62
TestCollatz.py      78      0      0      0   100%
------------------------------------------------------------
TOTAL              114      1     20      2    98%
