1 100000 351
1 110000 354
1 120000 354
1 130000 354
1 140000 354
1 150000 375
1 160000 383
1 170000 383
1 180000 383
1 190000 383
1 200000 383
1 210000 383
1 220000 386
1 230000 386
1 240000 443
1 250000 443
1 260000 443
1 270000 443
1 280000 443
1 290000 443
1 300000 443
1 310000 443
1 320000 443
1 330000 443
1 340000 443
1 350000 443
1 360000 443
1 370000 443
1 380000 443
1 390000 443
1 400000 443
1 410000 443
1 420000 449
1 430000 449
1 440000 449
1 450000 449
1 460000 449
1 470000 449
1 480000 449
1 490000 449
1 500000 449
1 510000 449
1 520000 470
1 530000 470
1 540000 470
1 550000 470
1 560000 470
1 570000 470
1 580000 470
1 590000 470
1 600000 470
1 610000 470
1 620000 470
1 630000 509
1 640000 509
1 650000 509
1 660000 509
1 670000 509
1 680000 509
1 690000 509
1 700000 509
1 710000 509
1 720000 509
1 730000 509
1 740000 509
1 750000 509
1 760000 509
1 770000 509
1 780000 509
1 790000 509
1 800000 509
1 810000 509
1 820000 509
1 830000 509
1 840000 525
1 850000 525
1 860000 525
1 870000 525
1 880000 525
1 890000 525
1 900000 525
1 910000 525
1 920000 525
1 930000 525
1 940000 525
1 950000 525
1 960000 525
1 970000 525
1 980000 525
1 990000 525
1 1000000 525
1 1 1
1000000 1000000 153
4 4 3
973639 992487 427
6939 35188 311
954064 995718 458
591292 737690 509
566721 736361 509
644605 971428 525
880552 903103 445
779293 818121 468
670456 804749 504
437568 925480 525
882108 994650 507
848916 917561 476
387480 387853 299
497339 680333 509
868742 885614 432
816031 950170 525
514215 789075 509
591383 864880 525
232082 922547 525
839557 887932 445
532078 966869 525
201030 972909 525
208511 574915 470
776317 887307 525
82915 86840 320
269689 280561 407
405921 464144 449
954052 998014 458
96641 969988 525
340873 394702 441
651440 874818 525
965075 991525 458
873797 934717 476
952849 977677 458
418242 489317 444
361433 476103 449
993166 999246 440
6344 283318 443
175903 492109 449
303314 594903 470
427121 631004 509
348543 904330 525
839142 975444 507
620879 997028 525
246059 259343 363
418166 436323 418
752484 932754 525
204582 499340 449
168152 233111 443
418605 760851 509
562025 993034 525
246895 445147 449
917917 926894 445
181510 905339 525
706697 833079 468
447621 716248 509
310149 958412 525
73510 81876 351
884221 947049 507
249457 308105 407
186766 298828 443
417694 718333 509
510908 901150 525
364057 442044 449
380968 934669 525
706564 792077 468
576143 585210 434
455623 886334 525
892998 969851 507
747535 875763 525
197138 883722 525
264584 753156 509
675105 940392 525
652020 752661 504
952940 966039 414
438697 889178 525
4196 247463 443
618178 868443 525
743786 861021 525
114490 158634 383
252995 746867 509
471085 897044 525
225015 847788 525
5686 361978 443
96844 192424 383
217426 270221 443
858287 939692 507
802231 837735 450
238651 932889 525
683808 787995 504
409254 796974 509
138508 369215 443
518613 973360 525
211608 925778 525
422936 806607 509
144481 548142 470
646519 821525 504
223042 360043 443
289887 637486 509
842408 961535 507
370150 474815 449
108879 875729 525
432890 996915 525
787494 885212 525
315056 982564 525
945848 981360 458
